CSC8631: Data Management and Exploratory Data Analysis
…
# Remove unwanted columns from dataframes

# Remove "purchased_statement_at"
all.enrolments = select(all.enrolments, learner_id, enrolled_at,    unenrolled_at,  role,   fully_participated_at, gender,  country,    age_range,  highest_education_level,    employment_status,  employment_area,    detected_country)
all.enrolments

## Warning: `...` is not empty.
## 
## We detected these problematic arguments:
## * `needs_dots`
## 
## These dots only exist to allow future extensions and should be empty.
## Did you misspecify an argument?

## # A tibble: 34,954 x 12
##    learner_id    enrolled_at   unenrolled_at   role  fully_participa~ gender country age_range highest_educati~ employment_stat~ employment_area detected_country
##    <chr>         <chr>         <chr>           <chr> <chr>            <chr>  <chr>   <chr>     <chr>            <chr>            <chr>           <chr>           
##  1 160d6600-ea0~ 2016-08-10 1~ ""              lear~ ""               Unkno~ Unknown Unknown   Unknown          Unknown          Unknown         GB              
##  2 4dc22fed-63d~ 2016-05-24 1~ "2018-10-30 20~ lear~ ""               male   PE      46-55     university_degr~ working_part_ti~ teaching_and_e~ PE              
##  3 ecdd37db-0c7~ 2016-05-19 0~ ""              lear~ "2016-09-22 16:~ Unkno~ Unknown Unknown   Unknown          Unknown          Unknown         NG              
##  4 988964c9-741~ 2016-05-19 2~ ""              lear~ ""               Unkno~ Unknown Unknown   Unknown          Unknown          Unknown         UG              
##  5 f1493366-17a~ 2016-09-19 1~ ""              lear~ ""               Unkno~ Unknown Unknown   Unknown          Unknown          Unknown         IM              
##  6 25cc3b46-a95~ 2016-08-30 0~ ""              lear~ "2016-10-25 12:~ Unkno~ Unknown Unknown   Unknown          Unknown          Unknown         NO              
##  7 9c23a086-f6b~ 2016-06-22 1~ ""              lear~ "2016-10-10 11:~ Unkno~ Unknown Unknown   Unknown          Unknown          Unknown         GB              
##  8 8851dc49-028~ 2016-08-07 1~ ""              lear~ "2018-10-17 18:~ Unkno~ Unknown Unknown   Unknown          Unknown          Unknown         GB              
##  9 a59b0a12-af4~ 2016-08-02 1~ "2018-10-17 21~ lear~ ""               Unkno~ Unknown Unknown   Unknown          Unknown          Unknown         FR              
## 10 198c1017-51f~ 2016-09-09 2~ ""              lear~ ""               Unkno~ Unknown Unknown   Unknown          Unknown          Unknown         GB              
## # ... with 34,944 more rows
…
